ProDA analysis for the CPTAC dataset
…
res.CPTAC.ProDA_C_B <- test_diff(fit_ref6B, "condition6C")
res.CPTAC.ProDA_C_B$UPS <- grepl("ups", res.CPTAC.ProDA_C_B$name)
res.CPTAC.ProDA_C_B$contrast <- "condition6C-condition6B"
res.CPTAC.ProDA_C_B <- res.CPTAC.ProDA_C_B[,c("name", "UPS", "contrast", "diff", "se",  "t_statistic", "df", "pval", "adj_pval")]
colnames(res.CPTAC.ProDA_C_B) <- c("protein", "UPS", "contrast", "logFC", "se", "t", "df", "pval", "qval")

res.CPTAC.ProDA <- rbind(res.CPTAC.ProDA_B_A, res.CPTAC.ProDA_C_A, res.CPTAC.ProDA_C_B)
res.CPTAC.ProDA <- as_tibble(res.CPTAC.ProDA)
res.CPTAC.ProDA.full <- res.CPTAC.ProDA %>% arrange(pval)

res.CPTAC.ProDA.full

## # A tibble: 4,386 x 9
##    protein  UPS   contrast        logFC    se     t    df     pval     qval
##    <chr>    <lgl> <chr>           <dbl> <dbl> <dbl> <dbl>    <dbl>    <dbl>
##  1 P02787u TRUE  condition6C-co  4.16 0.158  26.3    22 0.       0.      
##  2 P06732u TRUE  condition6C-co  3.87 0.145  26.7    22 0.       0.      
##  3 P08311u TRUE  condition6C-co  3.81 0.142  26.8    22 0.       0.      
##  4 Q06830u TRUE  condition6C-co  4.02 0.120  33.6    22 0.       0.      
##  5 P01031u TRUE  condition6C-co  3.50 0.159  21.9    22 2.22e-16 6.49e-14
##  6 P01127u TRUE  condition6C-co  3.84 0.182  21.1    22 4.44e-16 9.28e-14
##  7 P10145u TRUE  condition6C-co  3.68 0.174  21.1    22 4.44e-16 9.28e-14
##  8 P12081u TRUE  condition6C-co  2.74 0.139  19.6    22 2.00e-15 3.65e-13
##  9 P08263u TRUE  condition6C-co  3.89 0.206  18.9    22 4.44e-15 7.21e-13
## 10 P63165u TRUE  condition6C-co  3.20 0.184  17.4    22 2.35e-14 3.44e-12
## #  with 4,376 more rows
…
